<svg xmlns="http://www.w3.org/2000/svg" xmlns:xlink="http://www.w3.org/1999/xlink" preserveAspectRatio="xMidYMid" width="24" height="46" viewBox="0 0 24 46">
  <defs>
    <style>
      .cls-1 {
        fill: #999;
        fill-rule: evenodd;
      }
    </style>
  </defs>
  <path d="M20.889,23.000 L0.378,43.774 C-0.126,44.286 -0.126,45.104 0.378,45.616 C0.882,46.126 1.691,46.126 2.196,45.616 L23.621,23.916 C24.126,23.405 24.126,22.586 23.621,22.074 L2.196,0.384 C1.948,0.133 1.615,-0.001 1.292,-0.001 C0.968,-0.001 0.635,0.124 0.387,0.384 C-0.117,0.896 -0.117,1.714 0.387,2.225 L20.889,23.000 Z" class="cls-1"/>
</svg>
