<svg xmlns="http://www.w3.org/2000/svg" xmlns:xlink="http://www.w3.org/1999/xlink" preserveAspectRatio="xMidYMid" width="64" height="69.875" viewBox="0 0 64 69.875">
  <defs>
    <style>
      .cls-1 {
        fill: #000;
        filter: url(#color-overlay-1);
        fill-rule: evenodd;
      }
    </style>

    <filter id="color-overlay-1" filterUnits="userSpaceOnUse">
      <feFlood flood-color="#e56266"/>
      <feComposite operator="in" in2="SourceGraphic"/>
      <feBlend in2="SourceGraphic" result="solidFill"/>
    </filter>
  </defs>
  <path d="M48.877,69.880 L3.482,69.880 C1.503,69.880 -0.009,68.366 -0.009,66.386 L-0.009,5.817 C-0.009,3.837 1.503,2.322 3.482,2.322 L18.614,2.322 C18.614,1.041 19.662,-0.007 20.942,-0.007 L37.238,-0.007 C38.518,-0.007 39.566,1.041 39.566,2.322 L54.697,2.322 C56.676,2.322 58.189,3.837 58.189,5.817 L58.189,42.787 C61.735,45.554 64.009,49.872 64.009,54.738 C64.009,63.125 57.258,69.880 48.877,69.880 ZM51.205,9.311 L39.566,9.311 C39.566,10.592 38.518,11.640 37.238,11.640 L20.942,11.640 C19.662,11.640 18.614,10.592 18.614,9.311 L6.974,9.311 L6.974,62.892 L36.112,62.892 C34.704,60.683 33.854,58.081 33.756,55.281 C33.755,55.258 33.755,55.235 33.754,55.212 C33.749,55.055 33.746,54.897 33.746,54.738 C33.746,46.352 40.497,39.596 48.878,39.596 C49.022,39.596 49.165,39.599 49.308,39.603 C49.348,39.603 49.387,39.606 49.426,39.607 C49.533,39.610 49.640,39.615 49.746,39.621 C49.787,39.623 49.827,39.626 49.867,39.629 C49.977,39.636 50.087,39.644 50.197,39.653 C50.229,39.656 50.262,39.659 50.294,39.662 C50.424,39.674 50.552,39.688 50.681,39.702 C50.692,39.704 50.704,39.705 50.715,39.706 C50.879,39.726 51.043,39.748 51.205,39.773 L51.205,9.311 ZM55.966,44.051 C54.834,43.322 53.650,42.781 52.428,42.427 C52.292,42.446 52.156,42.437 52.020,42.391 C51.371,42.175 50.721,42.048 50.072,41.983 C50.060,41.981 50.047,41.980 50.034,41.979 C49.944,41.970 49.854,41.963 49.764,41.957 C49.666,41.950 49.567,41.944 49.468,41.940 C49.434,41.939 49.400,41.937 49.367,41.935 C49.353,41.935 49.340,41.934 49.326,41.934 C49.177,41.929 49.027,41.926 48.878,41.926 C41.777,41.926 36.074,47.633 36.074,54.738 C36.074,54.930 36.078,55.121 36.087,55.311 C36.087,55.319 36.088,55.326 36.088,55.333 C36.225,58.263 37.370,61.059 39.333,63.241 C39.417,63.325 39.480,63.416 39.527,63.513 C41.859,66.001 45.178,67.551 48.877,67.551 C55.978,67.551 61.681,61.843 61.681,54.738 C61.681,50.262 59.417,46.340 55.966,44.051 ZM49.576,60.096 C49.343,60.329 49.110,60.562 48.761,60.562 C48.761,60.446 48.644,60.446 48.644,60.446 C48.412,60.446 48.062,60.329 47.946,60.213 L42.359,55.670 C41.894,55.320 41.777,54.505 42.243,54.039 C42.592,53.573 43.407,53.457 43.872,53.923 L48.412,57.651 L54.930,48.332 C55.279,47.749 55.978,47.633 56.560,48.099 C57.142,48.448 57.258,49.147 56.792,49.730 L49.576,60.096 ZM44.687,34.937 L42.909,34.937 C42.389,36.940 40.561,38.431 38.402,38.431 C36.242,38.431 34.414,36.940 33.894,34.937 L24.286,34.937 C23.765,36.940 21.937,38.431 19.778,38.431 C17.619,38.431 15.791,36.940 15.271,34.937 L13.493,34.937 C11.747,34.937 10.466,33.655 10.466,31.908 L10.466,27.365 C10.466,25.735 11.747,24.336 13.493,24.336 L15.855,24.336 L20.360,18.047 C21.058,16.999 22.222,16.416 23.503,16.416 L28.539,16.416 C28.699,16.341 28.884,16.299 29.090,16.299 C29.296,16.299 29.481,16.341 29.640,16.416 L34.677,16.416 C35.957,16.416 37.121,16.999 37.820,18.047 L42.324,24.336 L44.803,24.336 C46.433,24.336 47.830,25.618 47.830,27.365 L47.830,31.908 C47.713,33.655 46.433,34.937 44.687,34.937 ZM38.402,36.101 C39.682,36.101 40.730,35.053 40.730,33.772 C40.730,32.490 39.682,31.442 38.402,31.442 C37.121,31.442 36.074,32.490 36.074,33.772 C36.074,35.053 37.121,36.101 38.402,36.101 ZM19.778,36.101 C21.059,36.101 22.106,35.053 22.106,33.772 C22.106,32.490 21.059,31.442 19.778,31.442 C18.498,31.442 17.450,32.490 17.450,33.772 C17.450,35.053 18.498,36.101 19.778,36.101 ZM27.926,18.629 L23.386,18.629 C22.921,18.629 22.455,18.863 22.106,19.212 L18.578,24.336 L27.926,24.336 L27.926,18.629 ZM35.841,19.212 C35.608,18.863 35.143,18.629 34.560,18.629 L30.254,18.629 L30.254,24.337 L39.483,24.337 L35.841,19.212 ZM45.502,27.365 C45.502,27.016 45.153,26.667 44.803,26.667 L42.417,26.667 C42.262,26.740 42.089,26.783 41.894,26.783 L16.286,26.783 C16.091,26.783 15.917,26.740 15.763,26.667 L13.493,26.667 C13.143,26.667 12.794,27.016 12.794,27.365 L12.794,31.908 C12.794,32.257 13.143,32.607 13.493,32.607 L15.271,32.607 C15.791,30.603 17.619,29.113 19.778,29.113 C19.796,29.113 19.813,29.114 19.831,29.114 C19.852,29.114 19.873,29.113 19.894,29.113 C22.106,29.113 23.852,30.627 24.434,32.607 L33.894,32.607 C34.414,30.603 36.242,29.113 38.402,29.113 C38.437,29.113 38.472,29.114 38.508,29.115 C38.550,29.114 38.592,29.113 38.634,29.113 C40.846,29.113 42.359,30.627 42.941,32.607 L44.803,32.607 C45.153,32.607 45.502,32.257 45.502,31.908 L45.502,27.365 ZM11.630,44.255 L29.090,44.255 C29.788,44.255 30.254,44.721 30.254,45.420 C30.254,46.119 29.788,46.585 29.090,46.585 L11.630,46.585 C10.932,46.585 10.466,46.119 10.466,45.420 C10.466,44.721 10.932,44.255 11.630,44.255 ZM11.630,50.079 L29.090,50.079 C29.788,50.079 30.254,50.545 30.254,51.244 C30.254,51.943 29.788,52.408 29.090,52.408 L11.630,52.408 C10.932,52.408 10.466,51.943 10.466,51.244 C10.466,50.545 10.932,50.079 11.630,50.079 ZM11.630,55.903 L29.090,55.903 C29.788,55.903 30.254,56.369 30.254,57.068 C30.254,57.767 29.788,58.232 29.090,58.232 L11.630,58.232 C10.932,58.232 10.466,57.767 10.466,57.068 C10.466,56.369 10.932,55.903 11.630,55.903 Z" class="cls-1"/>
</svg>
